Bios 8060E Project
…
META_tib <- as_tibble(META, row.names=rownames(META))
META_tib

## # A tibble: 60 x 5
##    Type       Color     Label Sensitized ColorSens      
##    <fct>      <fct>     <int> <fct>      <fct>          
##  1 noTx_0h    darkgreen  2838 y          darkolivegreen1
##  2 HDM_6h     gold       2838 y          lightgoldenrod2
##  3 saline_6h  orchid2    2838 y          orchid2        
##  4 HDM_24h    firebrick  2838 y          coral1         
##  5 saline_24h darkblue   2838 y          royalblue1     
##  6 noTx_0h    darkgreen  2839 y          darkolivegreen1
##  7 HDM_6h     gold       2839 y          lightgoldenrod2
##  8 saline_6h  orchid2    2839 y          orchid2        
##  9 HDM_24h    firebrick  2839 y          coral1         
## 10 saline_24h darkblue   2839 y          royalblue1     
## # ... with 50 more rows
…
